2023-04-13 19:46:23,828:DEBUG:certbot._internal.main:certbot version: 2.5.0
2023-04-13 19:46:23,828:DEBUG:certbot._internal.main:Location of certbot entry point: /usr/local/bin/certbot
2023-04-13 19:46:23,828:DEBUG:certbot._internal.main:Arguments: ['--webroot', '--register-unsafely-without-email', '--agree-tos', '--webroot-path=/data/letsencrypt', '--staging', '--standalone', '-d', 'localhost:8000']
2023-04-13 19:46:23,828:DEBUG:certbot._internal.main:Discovered plugins: PluginsRegistry(PluginEntryPoint#manual,PluginEntryPoint#null,PluginEntryPoint#standalone,PluginEntryPoint#webroot)
2023-04-13 19:46:24,396:DEBUG:certbot._internal.log:Root logging level set at 30
2023-04-13 19:46:24,493:DEBUG:certbot._internal.log:Exiting abnormally:
Traceback (most recent call last):
  File "/usr/local/bin/certbot", line 33, in <module>
    sys.exit(load_entry_point('certbot', 'console_scripts', 'certbot')())
  File "/opt/certbot/src/certbot/certbot/main.py", line 19, in main
    return internal_main.main(cli_args)
  File "/opt/certbot/src/certbot/certbot/_internal/main.py", line 1864, in main
    return config.func(config, plugins)
  File "/opt/certbot/src/certbot/certbot/_internal/main.py", line 1578, in certonly
    installer, auth = plug_sel.choose_configurator_plugins(config, plugins, "certonly")
  File "/opt/certbot/src/certbot/certbot/_internal/plugins/selection.py", line 208, in choose_configurator_plugins
    req_auth, req_inst = cli_plugin_requests(config)
  File "/opt/certbot/src/certbot/certbot/_internal/plugins/selection.py", line 312, in cli_plugin_requests
    req_auth = set_configurator(req_auth, "webroot")
  File "/opt/certbot/src/certbot/certbot/_internal/plugins/selection.py", line 287, in set_configurator
    raise errors.PluginSelectionError(msg.format(repr(previously), repr(now)))
certbot.errors.PluginSelectionError: Too many flags setting configurators/installers/authenticators 'standalone' -> 'webroot'
2023-04-13 19:46:24,497:ERROR:certbot._internal.log:Too many flags setting configurators/installers/authenticators 'standalone' -> 'webroot'
