2023-04-13 19:47:00,662:DEBUG:certbot._internal.main:certbot version: 2.5.0
2023-04-13 19:47:00,662:DEBUG:certbot._internal.main:Location of certbot entry point: /usr/local/bin/certbot
2023-04-13 19:47:00,662:DEBUG:certbot._internal.main:Arguments: ['--register-unsafely-without-email', '--agree-tos', '--webroot-path=/data/letsencrypt', '--staging', '--standalone', '-d', 'localhost:8000']
2023-04-13 19:47:00,662:DEBUG:certbot._internal.main:Discovered plugins: PluginsRegistry(PluginEntryPoint#manual,PluginEntryPoint#null,PluginEntryPoint#standalone,PluginEntryPoint#webroot)
2023-04-13 19:47:01,176:DEBUG:certbot._internal.log:Root logging level set at 30
2023-04-13 19:47:01,202:DEBUG:certbot._internal.plugins.selection:Requested authenticator standalone and installer None
2023-04-13 19:47:01,208:DEBUG:certbot._internal.plugins.selection:Single candidate plugin: * standalone
Description: Runs an HTTP server locally which serves the necessary validation files under the /.well-known/acme-challenge/ request path. Suitable if there is no HTTP server already running. HTTP challenge only (wildcards not supported).
Interfaces: Authenticator, Plugin
Entry point: standalone = certbot._internal.plugins.standalone:Authenticator
Initialized: <certbot._internal.plugins.standalone.Authenticator object at 0x7f8ae6e71900>
Prep: True
2023-04-13 19:47:01,210:DEBUG:certbot._internal.plugins.selection:Selected authenticator <certbot._internal.plugins.standalone.Authenticator object at 0x7f8ae6e71900> and installer None
2023-04-13 19:47:01,212:INFO:certbot._internal.plugins.selection:Plugins selected: Authenticator standalone, Installer None
2023-04-13 19:47:01,323:DEBUG:certbot._internal.main:Picked account: <Account(RegistrationResource(body=Registration(key=None, contact=(), agreement=None, status=None, terms_of_service_agreed=None, only_return_existing=None, external_account_binding=None), uri='https://acme-staging-v02.api.letsencrypt.org/acme/acct/98023364', new_authzr_uri=None, terms_of_service=None), 919ed05779aa7fd128f68de15877b6e7, Meta(creation_dt=datetime.datetime(2023, 4, 13, 19, 21, 48, tzinfo=<UTC>), creation_host='c26b38580019', register_to_eff=None))>
2023-04-13 19:47:01,326:DEBUG:acme.client:Sending GET request to https://acme-staging-v02.api.letsencrypt.org/directory.
2023-04-13 19:47:01,330:DEBUG:urllib3.connectionpool:Starting new HTTPS connection (1): acme-staging-v02.api.letsencrypt.org:443
2023-04-13 19:47:01,958:DEBUG:urllib3.connectionpool:https://acme-staging-v02.api.letsencrypt.org:443 "GET /directory HTTP/1.1" 200 830
2023-04-13 19:47:01,961:DEBUG:acme.client:Received response:
HTTP 200
Server: nginx
Date: Thu, 13 Apr 2023 19:47:01 GMT
Content-Type: application/json
Content-Length: 830
Connection: keep-alive
Cache-Control: public, max-age=0, no-cache
X-Frame-Options: DENY
Strict-Transport-Security: max-age=604800

{
  "ERo7QuD-Diw": "https://community.letsencrypt.org/t/adding-random-entries-to-the-directory/33417",
  "keyChange": "https://acme-staging-v02.api.letsencrypt.org/acme/key-change",
  "meta": {
    "caaIdentities": [
      "letsencrypt.org"
    ],
    "termsOfService": "https://letsencrypt.org/documents/LE-SA-v1.3-September-21-2022.pdf",
    "website": "https://letsencrypt.org/docs/staging-environment/"
  },
  "newAccount": "https://acme-staging-v02.api.letsencrypt.org/acme/new-acct",
  "newNonce": "https://acme-staging-v02.api.letsencrypt.org/acme/new-nonce",
  "newOrder": "https://acme-staging-v02.api.letsencrypt.org/acme/new-order",
  "renewalInfo": "https://acme-staging-v02.api.letsencrypt.org/get/draft-ietf-acme-ari-00/renewalInfo/",
  "revokeCert": "https://acme-staging-v02.api.letsencrypt.org/acme/revoke-cert"
}
2023-04-13 19:47:01,974:DEBUG:certbot._internal.display.obj:Notifying user: Requesting a certificate for localhost:8000
2023-04-13 19:47:01,985:DEBUG:acme.client:Requesting fresh nonce
2023-04-13 19:47:01,988:DEBUG:acme.client:Sending HEAD request to https://acme-staging-v02.api.letsencrypt.org/acme/new-nonce.
2023-04-13 19:47:02,181:DEBUG:urllib3.connectionpool:https://acme-staging-v02.api.letsencrypt.org:443 "HEAD /acme/new-nonce HTTP/1.1" 200 0
2023-04-13 19:47:02,184:DEBUG:acme.client:Received response:
HTTP 200
Server: nginx
Date: Thu, 13 Apr 2023 19:47:01 GMT
Connection: keep-alive
Cache-Control: public, max-age=0, no-cache
Link: <https://acme-staging-v02.api.letsencrypt.org/directory>;rel="index"
Replay-Nonce: 8F05275Sm6y8lPLvZPq0lHvuTBiuDMp12sDISLn93UGLc-E
X-Frame-Options: DENY
Strict-Transport-Security: max-age=604800


2023-04-13 19:47:02,186:DEBUG:acme.client:Storing nonce: 8F05275Sm6y8lPLvZPq0lHvuTBiuDMp12sDISLn93UGLc-E
2023-04-13 19:47:02,189:DEBUG:acme.client:JWS payload:
b'{\n  "identifiers": [\n    {\n      "type": "dns",\n      "value": "localhost"\n    }\n  ]\n}'
2023-04-13 19:47:02,194:DEBUG:acme.client:Sending POST request to https://acme-staging-v02.api.letsencrypt.org/acme/new-order:
{
  "protected": "eyJhbGciOiAiUlMyNTYiLCAia2lkIjogImh0dHBzOi8vYWNtZS1zdGFnaW5nLXYwMi5hcGkubGV0c2VuY3J5cHQub3JnL2FjbWUvYWNjdC85ODAyMzM2NCIsICJub25jZSI6ICI4RjA1Mjc1U202eThsUEx2WlBxMGxIdnVUQml1RE1wMTJzRElTTG45M1VHTGMtRSIsICJ1cmwiOiAiaHR0cHM6Ly9hY21lLXN0YWdpbmctdjAyLmFwaS5sZXRzZW5jcnlwdC5vcmcvYWNtZS9uZXctb3JkZXIifQ",
  "signature": "Gkt1dTpSOmaTvE2NrcDFimlf9D3Th_psbLODT7cMS1qvA5mBMiJFH_wKKYLKpOzM6ZPBiTYnYyvOhKhCbcgwGejJzJVOCa5ITp8oCKn3Nsh5jsr86eGIc9VGuaf8tHGhjCJrmpcduWgEVbpunkjLOmrrJcCgaWcPuuASPTqInO4iajlYq0PbtdFacs3jBqozE0qrXtiEEo9gYjWgB7DbnHJheeoPzuc98N0ISORcKTS7kU7J3uCJRkzE3vAt825KfRwC8HIlAgfZJKd_8HH9ewnbR8hG3ewJvNru1MXJQnT28u2FrfKwZaLTmzEITcUyK0OMFBYUXLr3xzz3paLZVg",
  "payload": "ewogICJpZGVudGlmaWVycyI6IFsKICAgIHsKICAgICAgInR5cGUiOiAiZG5zIiwKICAgICAgInZhbHVlIjogImxvY2FsaG9zdCIKICAgIH0KICBdCn0"
}
2023-04-13 19:47:02,389:DEBUG:urllib3.connectionpool:https://acme-staging-v02.api.letsencrypt.org:443 "POST /acme/new-order HTTP/1.1" 400 188
2023-04-13 19:47:02,392:DEBUG:acme.client:Received response:
HTTP 400
Server: nginx
Date: Thu, 13 Apr 2023 19:47:02 GMT
Content-Type: application/problem+json
Content-Length: 188
Connection: keep-alive
Boulder-Requester: 98023364
Cache-Control: public, max-age=0, no-cache
Link: <https://acme-staging-v02.api.letsencrypt.org/directory>;rel="index"
Replay-Nonce: BEB9vnjdMDTFVRelAvh-mTG29VtVmJdPv1OZxrsIF4u8Do4

{
  "type": "urn:ietf:params:acme:error:rejectedIdentifier",
  "detail": "Error creating new order :: Cannot issue for \"localhost\": Domain name needs at least one dot",
  "status": 400
}
2023-04-13 19:47:02,395:DEBUG:certbot._internal.log:Exiting abnormally:
Traceback (most recent call last):
  File "/usr/local/bin/certbot", line 33, in <module>
    sys.exit(load_entry_point('certbot', 'console_scripts', 'certbot')())
  File "/opt/certbot/src/certbot/certbot/main.py", line 19, in main
    return internal_main.main(cli_args)
  File "/opt/certbot/src/certbot/certbot/_internal/main.py", line 1864, in main
    return config.func(config, plugins)
  File "/opt/certbot/src/certbot/certbot/_internal/main.py", line 1597, in certonly
    lineage = _get_and_save_cert(le_client, config, domains, certname, lineage)
  File "/opt/certbot/src/certbot/certbot/_internal/main.py", line 141, in _get_and_save_cert
    lineage = le_client.obtain_and_enroll_certificate(domains, certname)
  File "/opt/certbot/src/certbot/certbot/_internal/client.py", line 516, in obtain_and_enroll_certificate
    cert, chain, key, _ = self.obtain_certificate(domains)
  File "/opt/certbot/src/certbot/certbot/_internal/client.py", line 428, in obtain_certificate
    orderr = self._get_order_and_authorizations(csr.data, self.config.allow_subset_of_names)
  File "/opt/certbot/src/certbot/certbot/_internal/client.py", line 478, in _get_order_and_authorizations
    orderr = self.acme.new_order(csr_pem)
  File "/opt/certbot/src/acme/acme/client.py", line 138, in new_order
    response = self._post(self.directory['newOrder'], order)
  File "/opt/certbot/src/acme/acme/client.py", line 366, in _post
    return self.net.post(*args, **kwargs)
  File "/opt/certbot/src/acme/acme/client.py", line 739, in post
    return self._post_once(*args, **kwargs)
  File "/opt/certbot/src/acme/acme/client.py", line 752, in _post_once
    response = self._check_response(response, content_type=content_type)
  File "/opt/certbot/src/acme/acme/client.py", line 603, in _check_response
    raise messages.Error.from_json(jobj)
acme.messages.Error: urn:ietf:params:acme:error:rejectedIdentifier :: The server will not issue certificates for the identifier :: Error creating new order :: Cannot issue for "localhost": Domain name needs at least one dot
2023-04-13 19:47:02,398:ERROR:certbot._internal.log:An unexpected error occurred:
2023-04-13 19:47:02,401:ERROR:certbot._internal.log:Error creating new order :: Cannot issue for "localhost": Domain name needs at least one dot
